{
  "project_info": {
    "project_number": "413084504132",
    "firebase_url": "https://miss-u-gram.firebaseio.com",
    "project_id": "miss-u-gram",
    "storage_bucket": "miss-u-gram.appspot.com"
  },
  "client": [
    {
      "client_info": {
        "mobilesdk_app_id": "1:413084504132:android:d562f51685ca4b0b",
        "android_client_info": {
          "package_name": "com.miss_u_gram"
        }
      },
      "oauth_client": [
        {
          "client_id": "413084504132-3g8us112064ttvc5dae469fqjrdoivta.apps.googleusercontent.com",
          "client_type": 1,
          "android_info": {
            "package_name": "com.miss_u_gram",
            "certificate_hash": "fac0185231b8e22f460ecb7857d54f87c37cc82f"
          }
        },
        {
          "client_id": "413084504132-5mfsd8o1h26m3mrebrcqofecbj18b1tr.apps.googleusercontent.com",
          "client_type": 1,
          "android_info": {
            "package_name": "com.miss_u_gram",
            "certificate_hash": "3e129c4616e3950dbe5a5ed90b7b6db1e6d7482e"
          }
        },
        {
          "client_id": "413084504132-52u8eqb02esa1mncjncm8rod1iu4hbul.apps.googleusercontent.com",
          "client_type": 3
        }
      ],
      "api_key": [
        {
          "current_key": "AIzaSyBzqO5Suo7DmcRdkxaN4R_O3eFGzAVU7H8"
        }
      ],
      "services": {
        "appinvite_service": {
          "other_platform_oauth_client": [
            {
              "client_id": "413084504132-52u8eqb02esa1mncjncm8rod1iu4hbul.apps.googleusercontent.com",
              "client_type": 3
            }
          ]
        }
      }
    }
  ],
  "configuration_version": "1"
}